…
## summarize within cities to obtain total number of homicides and unsolved homicides
## purrr to subset using nest
## using MAP to loop in total homicides and unsolved homicides within each unique city/state
dispo = 
  X %>%
  select(city_state, disposition) 
homicides =
  dispo %>%
  filter(disposition == "Closed by arrest") %>%
  group_by(city_state) %>%
  summarize(total_solved = n())
homicides
```

    ## # A tibble: 51 x 2
    ##    city_state     total_solved
    ##    <chr>                 <int>
    ##  1 Albuquerque_NM          232
    ##  2 Atlanta_GA              600
    ##  3 Baltimore_MD           1002
    ##  4 Baton Rouge_LA          228
    ##  5 Birmingham_AL           453
    ##  6 Boston_MA               304
    ##  7 Buffalo_NY              202
    ##  8 Charlotte_NC            481
    ##  9 Chicago_IL             1462
    ## 10 Cincinnati_OH           385
    ## # ... with 41 more rows

``` r
unsolved =
  dispo %>%
  filter(disposition == "Closed without arrest" | disposition == "Open/No arrest") %>%
  group_by(city_state) %>%
  summarize(total_unsolved = n())
unsolved
```

    ## # A tibble: 50 x 2
    ##    city_state     total_unsolved
    ##    <chr>                   <int>
    ##  1 Albuquerque_NM            146
    ##  2 Atlanta_GA                373
    ##  3 Baltimore_MD             1825
    ##  4 Baton Rouge_LA            196
    ##  5 Birmingham_AL             347
    ##  6 Boston_MA                 310
    ##  7 Buffalo_NY                319
    ##  8 Charlotte_NC              206
    ##  9 Chicago_IL               4073
    ## 10 Cincinnati_OH             309
    ## # ... with 40 more rows
…
